ODC分析
…
欠陥タイプx発生トリガー

odc %>% 
  dplyr::select(D_Type = '欠陥タイプ', Trigger = '発生トリガー') %>% 
  # dplyr::filter(D_Type != "（障害ではない）") %>% 
  dplyr::count(D_Type, Trigger) %>% 
  print() %>% 
  ggplot2::ggplot(ggplot2::aes(x = Trigger, y = n, fill = D_Type)) +
    ggplot2::geom_bar(stat = "identity", alpha = 0.75) +
    ggplot2::coord_flip()

## # A tibble: 45 x 3
##    D_Type           Trigger                      n
##    <chr>            <chr>                    <int>
##  1 （わからない）   （わからない）               1
##  2 （わからない）   f-i.1.基本                   1
##  3 （わからない）   f-i.3.操作順序依存           1
##  4 （わからない）   f-i.5.負荷・ストレス         1
##  5 （わからない）   f-i.8.構成                   1
##  6 （障害ではない） （わからない）               1
##  7 （障害ではない） （障害ではない）             1
##  8 （障害ではない） f-i.1.基本                   4
##  9 （障害ではない） f-i.2.組合せ                 2
## 10 （障害ではない） f-i.4.複数機能の相互作用     2
## # ... with 35 more rows
…
